<?xml version="1.0" encoding="utf-8"?>
<!-- Generator: Adobe Illustrator 22.1.0, SVG Export Plug-In . SVG Version: 6.00 Build 0)  -->
<svg version="1.1" id="Layer_1" xmlns="http://www.w3.org/2000/svg" xmlns:xlink="http://www.w3.org/1999/xlink" x="0px" y="0px"
	 viewBox="0 0 719 133" style="enable-background:new 0 0 719 133;" xml:space="preserve">
<style type="text/css">
	.st0{fill:#42C7F2;}
</style>
<g>
	<g>
		<path class="st0" d="M197.5,2.6l-40.3,39.6V2.6h-56l-99.6,98v31.8H61v-27.6L98.6,68v64.3h58.6v-27.6L194.8,68v64.3h58.6V2.6H197.5
			z M49.6,99.9v21H13.1v-15.6L106,14h31.5L49.6,99.9z M145.8,99.9v21h-35.7V56.8l35.7-34.9v47.6L202.2,14h31.5L145.8,99.9z
			 M206.3,120.9V56.8L242,21.9v99H206.3z"/>
		<path class="st0" d="M61,2.6H1.7v84.5L61,28.8V2.6z M49.6,24L13.1,59.8V14h36.4L49.6,24L49.6,24z"/>
	</g>
	<g>
		<path d="M303.6,114.5v8.1h-1.2v-9.5h1.7l4.1,8.1v-8.1h1.2v9.5h-1.7L303.6,114.5z"/>
		<path d="M324.9,113.1h5.6v1.1h-4.4v3h4v1.1h-4v3.2h4.4v1.1h-5.6V113.1z"/>
		<path d="M346.6,119.8c0,1.2,0.4,1.7,2,1.7c0.5,0,1.1,0,1.8-0.2v-3.2h1.2v4.1c-0.9,0.3-2,0.4-3,0.4c-2.4,0-3.2-1-3.2-2.8v-4.2
			c0-1.9,1-2.8,3.3-2.8c0.8,0,1.7,0.1,2.6,0.3l-0.1,1.1c-0.9-0.2-1.8-0.2-2.5-0.2c-1.6,0-2,0.5-2,1.7L346.6,119.8L346.6,119.8z"/>
		<path d="M373.5,119.8c0,1.6-1,2.9-3.4,2.9s-3.4-1.3-3.4-2.9v-4c0-1.6,1-2.9,3.4-2.9s3.4,1.3,3.4,2.9V119.8z M367.9,119.8
			c0,1.2,0.7,1.8,2.2,1.8s2.2-0.7,2.2-1.8v-4c0-1.2-0.7-1.8-2.2-1.8s-2.2,0.7-2.2,1.8V119.8z M369.4,111.7c0.6-0.4,1.2-0.7,1.8-1.2
			l0.5,0.8c-0.6,0.4-1.2,0.8-1.8,1.1L369.4,111.7z"/>
		<path d="M389.8,119.8c0,1.3,0.5,1.7,2.1,1.7c0.6,0,1.5-0.1,2.2-0.2l0.1,1.1c-0.7,0.2-1.7,0.3-2.4,0.3c-2.3,0-3.2-1-3.2-2.8v-4.2
			c0-1.8,0.9-2.8,3.2-2.8c0.7,0,1.7,0.1,2.4,0.3l-0.1,1.1c-0.7-0.1-1.6-0.2-2.2-0.2c-1.6,0-2.1,0.4-2.1,1.7V119.8z"/>
		<path d="M410.5,122.6h-1.2v-9.5h1.2V122.6z"/>
		<path d="M432.7,119.8c0,1.6-1,2.9-3.4,2.9s-3.4-1.3-3.4-2.9v-4c0-1.6,1-2.9,3.4-2.9s3.4,1.3,3.4,2.9V119.8z M427.1,119.8
			c0,1.2,0.7,1.8,2.2,1.8s2.2-0.7,2.2-1.8v-4c0-1.2-0.7-1.8-2.2-1.8s-2.2,0.7-2.2,1.8V119.8z"/>
		<path d="M450.5,122.7c-0.9,0-2-0.2-2.8-0.5l0.2-1c0.9,0.3,1.8,0.4,2.6,0.4c1.5,0,1.8-0.4,1.8-1.5c0-1.3,0-1.4-2-1.8
			c-2.3-0.5-2.6-1-2.6-2.9c0-1.6,0.7-2.4,3-2.4c0.8,0,1.8,0.1,2.6,0.3l-0.1,1c-0.8-0.2-1.6-0.3-2.4-0.3c-1.5,0-1.8,0.3-1.8,1.4
			c0,1.3,0,1.4,1.9,1.8c2.5,0.6,2.6,1,2.6,2.8C453.6,121.8,453.1,122.7,450.5,122.7z"/>
		<path d="M486.2,122.6H485v-9.5h1.2V122.6z"/>
		<path d="M509.9,113.1h1.6v9.5h-1.1v-7.7l-2.9,7.7H506l-2.9-7.7v7.7H502v-9.5h1.6l3.2,8.6L509.9,113.1z"/>
		<path d="M533.6,119.8c0,1.6-1,2.9-3.4,2.9s-3.4-1.3-3.4-2.9v-4c0-1.6,1-2.9,3.4-2.9s3.4,1.3,3.4,2.9V119.8z M527.9,119.8
			c0,1.2,0.7,1.8,2.2,1.8s2.2-0.7,2.2-1.8v-4c0-1.2-0.7-1.8-2.2-1.8s-2.2,0.7-2.2,1.8V119.8z"/>
		<path d="M548.9,122.6v-9.5h3.7c1.5,0,2.2,0.7,2.2,1.9v1.1c0,0.7-0.2,1.3-1.1,1.6c0.8,0.1,1.4,0.7,1.4,1.7v1.1c0,1.3-0.9,2-2.3,2
			h-3.9V122.6z M553.5,115c0-0.6-0.3-0.9-1.1-0.9H550v3.1h2.2c0.9,0,1.3-0.4,1.3-1.1V115z M553.8,119.4c0-0.8-0.4-1.2-1.4-1.2H550
			v3.2h2.5c0.9,0,1.3-0.4,1.3-1.1L553.8,119.4L553.8,119.4z"/>
		<path d="M571.4,122.6h-1.2v-9.5h1.2V122.6z"/>
		<path d="M588.2,121.5h4.1v1.1H587v-9.5h1.2V121.5z"/>
		<path d="M608.4,122.6h-1.2v-9.5h1.2V122.6z"/>
		<path d="M631.3,122.6H630l-0.8-2.3h-4l-0.8,2.3h-1.2l3.2-9.5h1.6L631.3,122.6z M627.2,114l-1.7,5.2h3.4L627.2,114z M626.7,111.7
			c0.6-0.4,1.2-0.7,1.8-1.2l0.5,0.8c-0.6,0.4-1.2,0.8-1.8,1.1L626.7,111.7z"/>
		<path d="M649.5,119.1h-2.3v3.4H646V113h3.6c2,0,2.7,0.9,2.7,2.3v1.4c0,1.1-0.4,1.9-1.5,2.2l2.5,3.6h-1.4L649.5,119.1z
			 M649.5,114.2h-2.3v3.9h2.3c1.2,0,1.6-0.3,1.6-1.3v-1.4C651.1,114.5,650.7,114.2,649.5,114.2z"/>
		<path d="M669.3,122.6h-1.2v-9.5h1.2V122.6z"/>
		<path d="M691.5,119.8c0,1.6-1,2.9-3.4,2.9s-3.4-1.3-3.4-2.9v-4c0-1.6,1-2.9,3.4-2.9s3.4,1.3,3.4,2.9V119.8z M685.9,119.8
			c0,1.2,0.7,1.8,2.2,1.8s2.2-0.7,2.2-1.8v-4c0-1.2-0.7-1.8-2.2-1.8s-2.2,0.7-2.2,1.8V119.8z"/>
		<path d="M709.3,122.7c-0.9,0-2-0.2-2.8-0.5l0.2-1c0.9,0.3,1.8,0.4,2.6,0.4c1.5,0,1.8-0.4,1.8-1.5c0-1.3,0-1.4-2-1.8
			c-2.3-0.5-2.6-1-2.6-2.9c0-1.6,0.7-2.4,3-2.4c0.8,0,1.8,0.1,2.6,0.3l-0.1,1c-0.8-0.2-1.6-0.3-2.4-0.3c-1.5,0-1.8,0.3-1.8,1.4
			c0,1.3,0,1.4,1.9,1.8c2.5,0.6,2.6,1,2.6,2.8C712.4,121.8,711.9,122.7,709.3,122.7z"/>
	</g>
	<g>
		<path d="M302.6,35.5h12.3v61.2h-12.3V35.5z"/>
		<path d="M384.1,35.6v61.1h-10.9V60.1L365,81.7h-8.2l-8.2-21.6l-0.1,36.6h-11.1l0.1-61.1H352l8.8,24.1l9-24.1H384.1z"/>
		<path d="M436.2,35.5l8.2,8.1v44.9l-8.2,8.2h-20.7l-8.2-8.2V43.6l8.2-8.2h20.7V35.5z M429.7,85.5l2.3-2.3V48.8l-2.1-2.2H422
			l-2.3,2.3v34.4l2.2,2.2H429.7z"/>
		<path d="M503.8,43.6v16.5l-5.1,5.1l5.1,5v18.6l-7.9,7.9h-29.1V35.5h28.9L503.8,43.6z M479.1,64.1l9.7-5l2.6-2.6v-6.9l-2.7-2.6
			h-9.6V64.1z M491.4,74.1l-2.6-2.6l-9.7,5v9.4h9.6l2.7-2.6V74.1z"/>
		<path d="M526.5,35.5h12.3v61.2h-12.3V35.5z"/>
		<path d="M573.7,35.4v50.2h24v11.1h-36.4V35.4H573.7z"/>
		<path d="M632.9,35.4v50.2h24v11.1h-36.4V35.4H632.9z"/>
		<path d="M716.2,35.5v11.1h-23.9v13.1h18v10.9h-18v15h23.9v11.1H680v-4.5V35.5H716.2z"/>
	</g>
</g>
</svg>
